regulon,module
Bhlhe41(+),mod1
E2f6(+),mod1
Pou3f3(+),mod1
Rbbp5(+),mod1
Rel(+),mod1
Smc3(+),mod1
Taf7(+),mod1
Hdac2(+),mod1
Bclaf1(+),mod2
Creb1(+),mod2
Crem(+),mod2
Ctcf(+),mod2
Cux1(+),mod2
Cux2(+),mod2
Elf1(+),mod2
Esrra(+),mod2
Esrrg(+),mod2
Etv3(+),mod2
Foxo3(+),mod2
Gabpa(+),mod2
Gabpb1(+),mod2
Hdac1(+),mod2
Hlf(+),mod2
Kdm5a(+),mod2
Kdm5b(+),mod2
Max(+),mod2
Mlxip(+),mod2
Mxi1(+),mod2
Phf8(+),mod2
Pou2f1(+),mod2
Rcor1(+),mod2
Smarca4(+),mod2
Srebf2(+),mod2
Supt20(+),mod2
Taf1(+),mod2
Xrcc4(+),mod2
Bcl11a(+),mod2
Atf3(+),mod3
Atf4(+),mod3
Bhlhe22(+),mod3
Bmyc(+),mod3
Cebpb(+),mod3
Dbp(+),mod3
Dlx1(+),mod3
Dlx5(+),mod3
Fos(+),mod3
Hmgb3(+),mod3
Junb(+),mod3
Jund(+),mod3
Klf5(+),mod3
Klf9(+),mod3
Erf(+),mod4
Ezh2(+),mod4
Klf13(+),mod4
Klf3(+),mod4
Npdc1(+),mod4
Pbx3(+),mod4
Ppargc1a(+),mod4
Sox4(+),mod4
Thap11(+),mod4
Ubtf(+),mod4
Xbp1(+),mod4
Yy1(+),mod4
Zmiz1(+),mod4
Lef1(+),mod5
Msx1(+),mod5
Runx3(+),mod5
Rxrg(+),mod5
Sox10(+),mod5
Sox8(+),mod5
Sp1(+),mod5
Stat1(+),mod5
Lhx1(+),mod6
Prrx1(+),mod6
Sall4(+),mod6
Sox2(+),mod6
Tcf7l2(+),mod6
Uncx(+),mod6
Egr1(+),mod7
Elk1(+),mod7
Emx2(+),mod7
Fosb(+),mod7
Gata3(+),mod7
Jun(+),mod7
Maz(+),mod7
Snai2(+),mod7
